{
    "KPlugin": {
        "Description": "C/C++ Language Support (Clang-based)",
        "Description[az]": "C/C++ Dil dəstəyi (Clang-əsaslı)",
        "Description[ca@valencia]": "Implementació del llenguatge C/C++ (basat en Clang)",
        "Description[ca]": "Implementació del llenguatge C/C++ (basat en Clang)",
        "Description[cs]": "Podpora jazyka C/C++ (založeno na Clang)",
        "Description[de]": "Sprachunterstützung für C/C++ (Clang-basiert)",
        "Description[el]": "Υποστήριξη γλώσσας C/C++ (με βάση τη Clang)",
        "Description[en_GB]": "C/C++ Language Support (Clang-based)",
        "Description[es]": "Implementación del lenguaje C/C++ (basado en Clang)",
        "Description[et]": "C/C++ keele toetus (põhineb Clangil)",
        "Description[eu]": "C/C++ lengoaia bateragarritasuna (Clang-en oinarrituta)",
        "Description[fi]": "C/C++-kielituki (Clang-pohjainen)",
        "Description[fr]": "Prise en charge du langage C/C++ (utilisant Clang)",
        "Description[gl]": "Compatibilidade con C e C++ (baseada en Clang)",
        "Description[it]": "Supporto al linguaggio C/C++ (basato su Clang)",
        "Description[ka]": "C/C++ ენების მხარდაჭერა (Clang-ის სტილი)",
        "Description[ko]": "C/C++ 언어 지원(Clang 기반)",
        "Description[nl]": "Ondersteuning voor de talen C/C++ (Clang-based)",
        "Description[pl]": "Obsługa języka C/C++ (oparta na Clang)",
        "Description[pt]": "Suporte para a Linguagem C/C++ (baseado no Clang)",
        "Description[pt_BR]": "Suporte à linguagem C/C++ (baseado no Clang)",
        "Description[ru]": "Поддержка языка C/C++ (на основе Clang)",
        "Description[sk]": "Podpora jazyka C/C++ (založená na triedach)",
        "Description[sl]": "Podpora jeziku C/C++ (temelječa na Clang)",
        "Description[sv]": "C/C++ språkstöd (Clang-baserat)",
        "Description[tr]": "C/C++ Dil Desteği (Clang-tabanlı)",
        "Description[uk]": "Підтримка мови C/C++ на основі Clang",
        "Description[x-test]": "xxC/C++ Language Support (Clang-based)xx",
        "Description[zh_CN]": "C/C++ 语言支持 (基于 Clang)",
        "Icon": "text-x-c++src",
        "Id": "kdevclangsupport",
        "Name": "C++ Support",
        "Name[az]": "C++ dəstəyi",
        "Name[bs]": "C++ Podrška",
        "Name[ca@valencia]": "Implementació de C++",
        "Name[ca]": "Implementació de C++",
        "Name[cs]": "Podpora C++",
        "Name[de]": "Unterstützung für C++",
        "Name[el]": "Υποστήριξη C++",
        "Name[en_GB]": "C++ Support",
        "Name[es]": "Implementación de C++",
        "Name[et]": "C++ toetus",
        "Name[eu]": "C++ bateragarritasuna",
        "Name[fi]": "C++-tuki",
        "Name[fr]": "Prise en charge du C++",
        "Name[gl]": "Compatibilidade con C++",
        "Name[hu]": "C++ támogatás",
        "Name[it]": "Supporto per C++",
        "Name[ka]": "C++-ის მხარდაჭერა",
        "Name[ko]": "C++ 지원",
        "Name[nl]": "Ondersteuning voor C++",
        "Name[pl]": "Obsługa C++",
        "Name[pt]": "Suporte para o C++",
        "Name[pt_BR]": "Suporte à C++",
        "Name[ru]": "Поддержка C++",
        "Name[sk]": "Podpora C++",
        "Name[sl]": "Podpora za C++",
        "Name[sv]": "C++ stöd",
        "Name[tr]": "C++ Desteği",
        "Name[uk]": "Підтримка C++",
        "Name[x-test]": "xxC++ Supportxx",
        "Name[zh_CN]": "C++ 支持"
    },
    "X-KDevelop-Interfaces": [
        "ILanguageSupport"
    ],
    "X-KDevelop-Languages": [
        "C",
        "C++",
        "OpenCL C",
        "CUDA C",
        "Objective-C"
    ],
    "X-KDevelop-LoadMode": "AlwaysOn",
    "X-KDevelop-Mode": "NoGUI",
    "X-KDevelop-SupportedMimeTypes": [
        "text/x-chdr",
        "text/x-c++hdr",
        "text/x-csrc",
        "text/x-c++src",
        "text/x-opencl-src",
        "text/vnd.nvidia.cuda.csrc",
        "text/vnd.nvidia.cuda.chdr",
        "text/x-objcsrc"
    ]
}
