{
    "KPlugin": {
        "Authors": [
            {
                "Name": "Carlos Nihelton",
                "Name[az]": "Carlos Nihelton",
                "Name[ca@valencia]": "Carlos Nihelton",
                "Name[ca]": "Carlos Nihelton",
                "Name[cs]": "Carlos Nihelton",
                "Name[de]": "Carlos Nihelton",
                "Name[el]": "Carlos Nihelton",
                "Name[en_GB]": "Carlos Nihelton",
                "Name[es]": "Carlos Nihelton",
                "Name[et]": "Carlos Nihelton",
                "Name[eu]": "Carlos Nihelton",
                "Name[fr]": "Carlos Nihelton",
                "Name[gl]": "Carlos Nihelton",
                "Name[it]": "Carlos Nihelton",
                "Name[ka]": "კარლოს ნიჰელტონი",
                "Name[ko]": "Carlos Nihelton",
                "Name[nl]": "Carlos Nihelton",
                "Name[pl]": "Carlos Nihelton",
                "Name[pt]": "Carlos Nihelton",
                "Name[pt_BR]": "Carlos Nihelton",
                "Name[ru]": "Carlos Nihelton",
                "Name[sk]": "Carlos Nihelton",
                "Name[sl]": "Carlos Nihelton",
                "Name[sv]": "Carlos Nihelton",
                "Name[uk]": "Carlos Nihelton",
                "Name[x-test]": "xxCarlos Niheltonxx",
                "Name[zh_CN]": "Carlos Nihelton"
            },
            {
                "Name": "Friedrich W. H. Kossebau",
                "Name[ar]": "Friedrich W. H. Kossebau",
                "Name[az]": "Friedrich W. H. Kossebau",
                "Name[ca@valencia]": "Friedrich W. H. Kossebau",
                "Name[ca]": "Friedrich W. H. Kossebau",
                "Name[cs]": "Friedrich W. H. Kossebau",
                "Name[de]": "Friedrich W. H. Kossebau",
                "Name[el]": "Friedrich W. H. Kossebau",
                "Name[en_GB]": "Friedrich W. H. Kossebau",
                "Name[es]": "Friedrich W. H. Kossebau",
                "Name[et]": "Friedrich W. H. Kossebau",
                "Name[eu]": "Friedrich W. H. Kossebau",
                "Name[fi]": "Friedrich W. H. Kossebau",
                "Name[fr]": "Friedrich W. H. Kossebau",
                "Name[gl]": "Friedrich W. H. Kossebau",
                "Name[it]": "Friedrich W. H. Kossebau",
                "Name[ka]": "ფრიდრიჰ კოსებაუ",
                "Name[ko]": "Friedrich W. H. Kossebau",
                "Name[nl]": "Friedrich W. H. Kossebau",
                "Name[nn]": "Friedrich W.H. Kossebau",
                "Name[pl]": "Friedrich W. H. Kossebau",
                "Name[pt]": "Friedrich W. H. Kossebau",
                "Name[pt_BR]": "Friedrich W. H. Kossebau",
                "Name[ru]": "Friedrich W. H. Kossebau",
                "Name[sk]": "Friedrich W. H. Kossebau",
                "Name[sl]": "Friedrich W. H. Kossebau",
                "Name[sv]": "Friedrich W. H. Kossebau",
                "Name[tr]": "Friedrich W. H. Kossebau",
                "Name[uk]": "Friedrich W. H. Kossebau",
                "Name[x-test]": "xxFriedrich W. H. Kossebauxx",
                "Name[zh_CN]": "Friedrich W. H. Kossebau"
            }
        ],
        "Category": "Analyzers",
        "Description": "clang-tidy provides an extensible framework for diagnosing and fixing typical programming errors, like style violations, interface misuse, or bugs that can be deduced via static analysis. https://clang.llvm.org/extra/clang-tidy/",
        "Description[az]": "clang-tidy üslub pozuntuları, interfeysdən sui-istifadə və ya statik analiz köməyi ilə aşkar edilə bilən səhvlər kimi tipik proqramlaşdırma səhvlərinin diaqnozu və həmin səhvlərin aradan qaldırılması üçün genişləndiriləbilən struktur təqdim edir. https://clang.llvm.org/extra/clang-tidy/",
        "Description[ca@valencia]": "clang-tidy proporciona un marc de treball extensible per al diagnòstic i esmena d'errors de programació típics, com ara infraccions de l'estil, mal ús de la interfície o errors que es poden deduir mitjançant anàlisi estàtica. https://clang.llvm.org/extra/clang-tidy/",
        "Description[ca]": "El clang-tidy proporciona un marc de treball extensible per al diagnòstic i esmena d'errors de programació típics, com ara infraccions de l'estil, mal ús de la interfície o errors que es poden deduir mitjançant anàlisi estàtica. https://clang.llvm.org/extra/clang-tidy/",
        "Description[el]": "Το clang-tidy παρέχει ένα επεκτάσιμο πλαίσιο για διάγνωση και διόρθωση τυπικών προγραμματιστικών σφαλμάτων, όπως παραβιάσεις στο στιλ, κακή χρήση της διεπαφής, ή σφάλματα που ανακύπτουν από τη στατική ανάλυση. https://clang.llvm.org/extra/clang-tidy/",
        "Description[en_GB]": "clang-tidy provides an extensible framework for diagnosing and fixing typical programming errors, like style violations, interface misuse, or bugs that can be deduced via static analysis. https://clang.llvm.org/extra/clang-tidy/",
        "Description[es]": "Clang-Tidy proporciona una infraestructura extensible para diagnosticar y corregir errores típicos de programación, como violaciones de estilo, mal uso de la interfaz o fallos que se pueden deducir mediante análisis estáticos. https://clang.llvm.org/extra/clang-tidy/",
        "Description[et]": "clang-tidy pakub ulatuslikku raamistikku tüüpiliste programmeerimisvigade (nt stiilivead, liideste väärkasutus või vead, mida saab järeldada staatilise analüüsi põhjal) diagnoosimiseks ja parandamiseks. https://clang.llvm.org/extra/clang-tidy/",
        "Description[eu]": "clang-tidyk programazio errore arruntak diagnostikatu eta konpontzeko marko hedagarri bat ematen du, adibidez estilo-bortxaketak, interfazeen erabilera okerrak, edo analisi estatikoaren bidez ondorioztatu daitezkeen erroreak. https://clang.llvm.org/extra/clang-tidy/",
        "Description[fr]": "clang-tidy offre une infrastructure extensible pour le diagnostic et la correction des erreurs de programmation fréquentes : violations de normes de code, mauvaise utilisation des interfaces ou bogues pouvant être identifiés grâce à l'analyse statique. https://clang.llvm.org/extra/clang-tidy/",
        "Description[gl]": "clang-tidy fornece unha infraestrutura extensíbel para diagnosticar e solucionar erros de programación típicos, como violacións das regras de estilo, ou fallos que poden deducirse mediante a análise sintáctica. https://clang.llvm.org/extra/clang-tidy/",
        "Description[it]": "clang-tidy fornisce un'infrastruttura estensibile per diagnosticare e correggere dei classici errori di programmazione, che includono violazioni di stile, uso incorretto delle interfacce o errori che possono essere dedotti tramite analisi statica. https://clang.llvm.org/extra/clang-tidy/",
        "Description[ka]": "clang-tidy უზრუნველყოფს გაფართოებულ ფრეიმვორკს პროგრამირების ტიპიური შეცდომების დიაგნოსტიკისა და დაფიქსირებისთვის, როგორიცაა სტილის დარღვევები, ინტერფეისის არასწორად გამოყენება ან შეცდომები, რომლებიც შეიძლება გამოიტანოს სტატიკური ანალიზის საშუალებით. https://clang.llvm.org/extra/clang-tidy/",
        "Description[ko]": "clang-tidy는 스타일 위반, 인터페이스 오용, 정적 분석으로 유추할 수 있는 버그 등 일반적인 프로그래밍 에러를 감지하고 수정하는 프레임워크입니다. https://clang.llvm.org/extra/clang-tidy/",
        "Description[nl]": "clang-tidy biedt een uitbreidbaar framework voor diagnose en repareren van typische programmeringsfouten, zoals ingaan tegen de stijl, misbruik van interface of bugs die afgeleid worden via statische analyse. https://clang.llvm.org/extra/clang-tidy/",
        "Description[pl]": "clang-tidy dostarcza szkielet do diagnostyki i naprawiania powszechnych błędów programistycznych, takich jak łamanie zasad, nadużycia w interfejsie, lub błędy, które można wykryć poprzez analizę statyczną. https://clang.llvm.org/extra/clang-tidy/",
        "Description[pt]": "O 'clang-tidy' oferece uma plataforma extensível para diagnosticar e corrigir erros de programação típicos, como as violações do estilo, mau uso das interfaces ou erros que possam ser deduzidos por análise estática. https://clang.llvm.org/extra/clang-tidy/",
        "Description[pt_BR]": "O 'clang-tidy' oferece uma plataforma extensível para diagnosticar e corrigir erros de programação típicos, como as violações do estilo, mau uso das interfaces ou erros que possam ser deduzidos por análise estática. https://clang.llvm.org/extra/clang-tidy/",
        "Description[ru]": "clang-tidy — расширяемая оболочка для диагностирования и исправления типичных ошибок в программах, в частности, нарушений стиля, ошибочного использования интерфейса и недостатков, которые можно обнаружить с помощью статического анализа. https://clang.llvm.org/extra/clang-tidy/",
        "Description[sk]": "clang-tidy poskytuje rozsiahly framework na diagnózu a opravu typických programátorských chýb, ako porušenie štýlov, nesprávne použitie rozhrania alebo chyby, ktoré sa dajú dedukovať cez statickú analýzu. https://clang.llvm.org/extra/clang-tidy/",
        "Description[sl]": "clang-tidy ponuja razširljiv okvir za diagnosticiranje in popravljanje tipičnih napak v programiranju, kot so kršitve stila, nepravilna raba vmesnika ali napake, ki jih je mogoče ugotoviti s statično analizo. https://clang.llvm.org/extra/clang-tidy/ ",
        "Description[sv]": "Clang-Tidy tillhandahåller ett utvidgningsbart ramverk för att diagnosticera och rätta typiska programmeringsfel, som stilöverträdelser, gränssnittsmissbruk eller fel som kan härledas via statisk analys. https://clang.llvm.org/extra/clang-tidy/",
        "Description[uk]": "clang-tidy — розширена оболонка діагностування та виправлення типових помилок у програмах, зокрема порушень стилю, помилкового використання інтерфейсу та вад, які можна виявити за допомогою статичного аналізу. https://clang.llvm.org/extra/clang-tidy/",
        "Description[x-test]": "xxclang-tidy provides an extensible framework for diagnosing and fixing typical programming errors, like style violations, interface misuse, or bugs that can be deduced via static analysis. https://clang.llvm.org/extra/clang-tidy/xx",
        "Description[zh_CN]": "clang-tidy 提供了一个可扩展的框架，用于诊断和修复典型的编程错误，例如样式违规，接口滥用或可以通过静态分析推断出的错误。https://clang.llvm.org/extra/clang-tidy/",
        "Icon": "dialog-ok",
        "Id": "kdevclangtidy",
        "License": "GPL",
        "Name": "Clang-Tidy Support",
        "Name[az]": "Clang-Tidy dəstəyi",
        "Name[ca@valencia]": "Implementació de Clang-Tidy",
        "Name[ca]": "Implementació de Clang-Tidy",
        "Name[cs]": "Podpora Clang-Tidy",
        "Name[de]": "Unterstützung für Clang-Tidy",
        "Name[el]": "Υποστήριξη clang-tidy",
        "Name[en_GB]": "Clang-Tidy Support",
        "Name[es]": "Implementación de Clang-Tidy",
        "Name[et]": "Clang-Tidy toetus",
        "Name[eu]": "Clang-Tidy bateragarritasuna",
        "Name[fr]": "Prise en charge de Clang-Tidy",
        "Name[gl]": "Compatibilidade con Clang-Tidy",
        "Name[it]": "Supporto per Clang-Tidy",
        "Name[ka]": "CLang-Tidy-ის მხარდაჭერა",
        "Name[ko]": "Clang-Tidy 지원",
        "Name[nl]": "Ondersteuning van Clang-Tidy",
        "Name[pl]": "Obsługa Clang-Tidy",
        "Name[pt]": "Suporte para o Clang-Tidy",
        "Name[pt_BR]": "Suporte à Clang-Tidy",
        "Name[ru]": "Поддержка Clang-Tidy",
        "Name[sk]": "Podpora Clang-Tidy",
        "Name[sl]": "Podpora za Clang-Tidy",
        "Name[sv]": "Clang-Tidy-stöd",
        "Name[uk]": "Підтримка Clang-Tidy",
        "Name[x-test]": "xxClang-Tidy Supportxx",
        "Name[zh_CN]": "Clang-Tidy 支持",
        "Version": "0.3.3"
    },
    "X-KDevelop-Category": "Global",
    "X-KDevelop-IRequired": [
        "org.kdevelop.IBuildSystemManager"
    ],
    "X-KDevelop-Mode": "GUI"
}
